<svg width="67" height="16" viewBox="0 0 67 16" fill="none" xmlns="http://www.w3.org/2000/svg">
<path d="M66.7071 8.70711C67.0976 8.31659 67.0976 7.68342 66.7071 7.2929L60.3431 0.928937C59.9526 0.538413 59.3195 0.538413 58.9289 0.928937C58.5384 1.31946 58.5384 1.95263 58.9289 2.34315L64.5858 8.00001L58.9289 13.6569C58.5384 14.0474 58.5384 14.6805 58.9289 15.0711C59.3195 15.4616 59.9526 15.4616 60.3431 15.0711L66.7071 8.70711ZM-8.74228e-08 9L66 9.00001L66 7.00001L8.74228e-08 7L-8.74228e-08 9Z" fill="#F0C76C"/>
</svg>
